module github.com/kumina/unbound_exporter

go 1.16

require (
	github.com/cespare/xxhash/v2 v2.1.2 // indirect
	github.com/go-kit/log v0.2.0
	github.com/golang/protobuf v1.5.2 // indirect
	github.com/google/go-cmp v0.5.6 // indirect
	github.com/prometheus/client_golang v1.11.0
	github.com/prometheus/common v0.32.1
	github.com/prometheus/procfs v0.7.3 // indirect
	golang.org/x/sys v0.0.0-20211112193437-faf0a1b62c6b // indirect
	google.golang.org/protobuf v1.27.1 // indirect
)
